{
	"name": "VectorFablabo",
	"version": "1.0",
	"author": "...",
	"url": "https://www.mediawiki.org/wiki/Skin:VectorFablabo",
	"descriptionmsg": "skin wordpress pour fablabo.net",
	"namemsg": "skinname-vectorfablabo",
	"license-name": "CC0-1.0",
	"type": "skin",
	"ValidSkinNames": {
		"vectorfablabo": "VectorFablabo"
	},
	"MessagesDirs": {
		"VectorFablabo": [
			"i18n"
		]
	},
	"ResourceModules": {
		"skins.vectorfablabo": {
			"class": "ResourceLoaderSkinModule",
			"position": "top",
			"styles": {
				"resources/libraries/normalise.css": {
					"media": "screen"
				},
			        "resources/fablabo.less": {
					"media": "screen"
				},
			        "resources/fablabo-layout.css": {
					"media": "screen"
				},
				"resources/screen-common.less": {
					"media": "screen"
				},
				"resources/screen-desktop.less": {
					"media": "screen and (min-width: 751px)"
				},
				"resources/screen-mobile.less": {
					"media": "screen and (max-width: 750px)"
				},
				"resources/print.css": {
					"media": "print"
				}
			}
		},
		"skins.vectorfablabo.js": {
			"position": "bottom",
			"scripts": [
				"resources/fablabo.js"
			        
			]
		}
	},
	"ResourceFileModulePaths": {
		"localBasePath": "",
		"remoteSkinPath": "VectorFablabo"
	},
	"AutoloadClasses": {
		"SkinVectorFablabo": "VectorFablabo.skin.php",
		"VectorFablaboTemplate": "VectorFablaboTemplate.php"
	},
	"manifest_version": 1
}
